{
  "tracks": {
    "href": "https://api.spotify.com/v1/search?query=%22I+Want+it+That+Way%22&type=track&offset=0&limit=5",
    "items": [
      {
        "album": {
          "album_type": "compilation",
          "artists": [
            {
              "external_urls": {
                "spotify": "https://open.spotify.com/artist/5rSXSAkZ67PYJSvpUpkOr7"
              },
              "href": "https://api.spotify.com/v1/artists/5rSXSAkZ67PYJSvpUpkOr7",
              "id": "5rSXSAkZ67PYJSvpUpkOr7",
              "name": "Backstreet Boys",
              "type": "artist",
              "uri": "spotify:artist:5rSXSAkZ67PYJSvpUpkOr7"
            }
          ],
          "available_markets": [
            "AD",
            "AE",
            "AR",
            "AT",
            "AU",
            "BE",
            "BG",
            "BH",
            "BO",
            "BR",
            "CA",
            "CH",
            "CL",
            "CO",
            "CR",
            "CY",
            "CZ",
            "DE",
            "DK",
            "DO",
            "DZ",
            "EC",
            "EE",
            "EG",
            "ES",
            "FI",
            "FR",
            "GB",
            "GR",
            "GT",
            "HK",
            "HN",
            "HU",
            "ID",
            "IE",
            "IL",
            "IN",
            "IS",
            "IT",
            "JO",
            "JP",
            "KW",
            "LB",
            "LI",
            "LT",
            "LU",
            "LV",
            "MA",
            "MC",
            "MT",
            "MX",
            "MY",
            "NI",
            "NL",
            "NO",
            "NZ",
            "OM",
            "PA",
            "PE",
            "PH",
            "PL",
            "PS",
            "PT",
            "PY",
            "QA",
            "RO",
            "SA",
            "SE",
            "SG",
            "SK",
            "SV",
            "TH",
            "TN",
            "TR",
            "TW",
            "US",
            "UY",
            "VN",
            "ZA"
          ],
          "external_urls": {
            "spotify": "https://open.spotify.com/album/1NslKOZobWxINFaFkLol3r"
          },
          "href": "https://api.spotify.com/v1/albums/1NslKOZobWxINFaFkLol3r",
          "id": "1NslKOZobWxINFaFkLol3r",
          "images": [
            {
              "height": 640,
              "url": "https://i.scdn.co/image/0e6369414c95a808300ee64f987de1f36a5da4c9",
              "width": 640
            },
            {
              "height": 300,
              "url": "https://i.scdn.co/image/41546c8dc574efbb58620c76ed0e202e888ceced",
              "width": 300
            },
            {
              "height": 64,
              "url": "https://i.scdn.co/image/e98281abf2569ac75e5ab14af3621c8e3be24ac7",
              "width": 64
            }
          ],
          "name": "The Hits--Chapter One",
          "release_date": "2001-10-23",
          "release_date_precision": "day",
          "total_tracks": 13,
          "type": "album",
          "uri": "spotify:album:1NslKOZobWxINFaFkLol3r"
        },
        "artists": [
          {
            "external_urls": {
              "spotify": "https://open.spotify.com/artist/5rSXSAkZ67PYJSvpUpkOr7"
            },
            "href": "https://api.spotify.com/v1/artists/5rSXSAkZ67PYJSvpUpkOr7",
            "id": "5rSXSAkZ67PYJSvpUpkOr7",
            "name": "Backstreet Boys",
            "type": "artist",
            "uri": "spotify:artist:5rSXSAkZ67PYJSvpUpkOr7"
          }
        ],
        "available_markets": [
          "AD",
          "AE",
          "AR",
          "AT",
          "AU",
          "BE",
          "BG",
          "BH",
          "BO",
          "BR",
          "CA",
          "CH",
          "CL",
          "CO",
          "CR",
          "CY",
          "CZ",
          "DE",
          "DK",
          "DO",
          "DZ",
          "EC",
          "EE",
          "EG",
          "ES",
          "FI",
          "FR",
          "GB",
          "GR",
          "GT",
          "HK",
          "HN",
          "HU",
          "ID",
          "IE",
          "IL",
          "IN",
          "IS",
          "IT",
          "JO",
          "JP",
          "KW",
          "LB",
          "LI",
          "LT",
          "LU",
          "LV",
          "MA",
          "MC",
          "MT",
          "MX",
          "MY",
          "NI",
          "NL",
          "NO",
          "NZ",
          "OM",
          "PA",
          "PE",
          "PH",
          "PL",
          "PS",
          "PT",
          "PY",
          "QA",
          "RO",
          "SA",
          "SE",
          "SG",
          "SK",
          "SV",
          "TH",
          "TN",
          "TR",
          "TW",
          "US",
          "UY",
          "VN",
          "ZA"
        ],
        "disc_number": 1,
        "duration_ms": 213600,
        "explicit": false,
        "external_ids": {
          "isrc": "USJI19910614"
        },
        "external_urls": {
          "spotify": "https://open.spotify.com/track/6e40mgJiCid5HRAGrbpGA6"
        },
        "href": "https://api.spotify.com/v1/tracks/6e40mgJiCid5HRAGrbpGA6",
        "id": "6e40mgJiCid5HRAGrbpGA6",
        "is_local": false,
        "name": "I Want It That Way",
        "popularity": 76,
        "preview_url": "https://p.scdn.co/mp3-preview/e72a05dc3f69c891e3390c3ceaa77fad02f6b5f6?cid=7be54b178543442d9dacc0ae0e71a8a5",
        "track_number": 1,
        "type": "track",
        "uri": "spotify:track:6e40mgJiCid5HRAGrbpGA6"
      },
      {
        "album": {
          "album_type": "album",
          "artists": [
            {
              "external_urls": {
                "spotify": "https://open.spotify.com/artist/5rSXSAkZ67PYJSvpUpkOr7"
              },
              "href": "https://api.spotify.com/v1/artists/5rSXSAkZ67PYJSvpUpkOr7",
              "id": "5rSXSAkZ67PYJSvpUpkOr7",
              "name": "Backstreet Boys",
              "type": "artist",
              "uri": "spotify:artist:5rSXSAkZ67PYJSvpUpkOr7"
            }
          ],
          "available_markets": [
            "AD",
            "AE",
            "AR",
            "AT",
            "AU",
            "BE",
            "BG",
            "BH",
            "BO",
            "BR",
            "CA",
            "CH",
            "CL",
            "CO",
            "CR",
            "CY",
            "CZ",
            "DE",
            "DK",
            "DO",
            "DZ",
            "EC",
            "EE",
            "EG",
            "ES",
            "FI",
            "FR",
            "GB",
            "GR",
            "GT",
            "HK",
            "HN",
            "HU",
            "ID",
            "IE",
            "IL",
            "IN",
            "IS",
            "IT",
            "JO",
            "JP",
            "KW",
            "LB",
            "LI",
            "LT",
            "LU",
            "LV",
            "MA",
            "MC",
            "MT",
            "MX",
            "MY",
            "NI",
            "NL",
            "NO",
            "NZ",
            "OM",
            "PA",
            "PE",
            "PH",
            "PL",
            "PS",
            "PT",
            "PY",
            "QA",
            "RO",
            "SA",
            "SE",
            "SG",
            "SK",
            "SV",
            "TH",
            "TN",
            "TR",
            "TW",
            "US",
            "UY",
            "VN",
            "ZA"
          ],
          "external_urls": {
            "spotify": "https://open.spotify.com/album/5ySxm9hxBNss01WCL7GLyQ"
          },
          "href": "https://api.spotify.com/v1/albums/5ySxm9hxBNss01WCL7GLyQ",
          "id": "5ySxm9hxBNss01WCL7GLyQ",
          "images": [
            {
              "height": 640,
              "url": "https://i.scdn.co/image/a4cc74686d9e5c1e8a64dd7ca40502c4d10eb421",
              "width": 640
            },
            {
              "height": 300,
              "url": "https://i.scdn.co/image/6500de7dbf760ba097b5fb5de854d42289b15c20",
              "width": 300
            },
            {
              "height": 64,
              "url": "https://i.scdn.co/image/03d9033fe4d331351cde4cf7bb1111c39580b7e9",
              "width": 64
            }
          ],
          "name": "Millennium",
          "release_date": "1999-05-18",
          "release_date_precision": "day",
          "total_tracks": 12,
          "type": "album",
          "uri": "spotify:album:5ySxm9hxBNss01WCL7GLyQ"
        },
        "artists": [
          {
            "external_urls": {
              "spotify": "https://open.spotify.com/artist/5rSXSAkZ67PYJSvpUpkOr7"
            },
            "href": "https://api.spotify.com/v1/artists/5rSXSAkZ67PYJSvpUpkOr7",
            "id": "5rSXSAkZ67PYJSvpUpkOr7",
            "name": "Backstreet Boys",
            "type": "artist",
            "uri": "spotify:artist:5rSXSAkZ67PYJSvpUpkOr7"
          }
        ],
        "available_markets": [
          "AD",
          "AE",
          "AR",
          "AT",
          "AU",
          "BE",
          "BG",
          "BH",
          "BO",
          "BR",
          "CA",
          "CH",
          "CL",
          "CO",
          "CR",
          "CY",
          "CZ",
          "DE",
          "DK",
          "DO",
          "DZ",
          "EC",
          "EE",
          "EG",
          "ES",
          "FI",
          "FR",
          "GB",
          "GR",
          "GT",
          "HK",
          "HN",
          "HU",
          "ID",
          "IE",
          "IL",
          "IN",
          "IS",
          "IT",
          "JO",
          "JP",
          "KW",
          "LB",
          "LI",
          "LT",
          "LU",
          "LV",
          "MA",
          "MC",
          "MT",
          "MX",
          "MY",
          "NI",
          "NL",
          "NO",
          "NZ",
          "OM",
          "PA",
          "PE",
          "PH",
          "PL",
          "PS",
          "PT",
          "PY",
          "QA",
          "RO",
          "SA",
          "SE",
          "SG",
          "SK",
          "SV",
          "TH",
          "TN",
          "TR",
          "TW",
          "US",
          "UY",
          "VN",
          "ZA"
        ],
        "disc_number": 1,
        "duration_ms": 213306,
        "explicit": false,
        "external_ids": {
          "isrc": "USJI19910614"
        },
        "external_urls": {
          "spotify": "https://open.spotify.com/track/47BBI51FKFwOMlIiX6m8ya"
        },
        "href": "https://api.spotify.com/v1/tracks/47BBI51FKFwOMlIiX6m8ya",
        "id": "47BBI51FKFwOMlIiX6m8ya",
        "is_local": false,
        "name": "I Want It That Way",
        "popularity": 76,
        "preview_url": "https://p.scdn.co/mp3-preview/b8c2410a5acb68b462be6ac85f1312430e2b149c?cid=7be54b178543442d9dacc0ae0e71a8a5",
        "track_number": 2,
        "type": "track",
        "uri": "spotify:track:47BBI51FKFwOMlIiX6m8ya"
      },
      {
        "album": {
          "album_type": "single",
          "artists": [
            {
              "external_urls": {
                "spotify": "https://open.spotify.com/artist/3yEHYuHmhkzoGr4Fb1kd0t"
              },
              "href": "https://api.spotify.com/v1/artists/3yEHYuHmhkzoGr4Fb1kd0t",
              "id": "3yEHYuHmhkzoGr4Fb1kd0t",
              "name": "Mick Jensen",
              "type": "artist",
              "uri": "spotify:artist:3yEHYuHmhkzoGr4Fb1kd0t"
            }
          ],
          "available_markets": [
            "AD",
            "AE",
            "AR",
            "AT",
            "AU",
            "BE",
            "BG",
            "BH",
            "BO",
            "BR",
            "CA",
            "CH",
            "CL",
            "CO",
            "CR",
            "CY",
            "CZ",
            "DE",
            "DK",
            "DO",
            "DZ",
            "EC",
            "EE",
            "EG",
            "ES",
            "FI",
            "FR",
            "GB",
            "GR",
            "GT",
            "HK",
            "HN",
            "HU",
            "ID",
            "IE",
            "IL",
            "IN",
            "IS",
            "IT",
            "JO",
            "JP",
            "KW",
            "LB",
            "LI",
            "LT",
            "LU",
            "LV",
            "MA",
            "MC",
            "MT",
            "MX",
            "MY",
            "NI",
            "NL",
            "NO",
            "NZ",
            "OM",
            "PA",
            "PE",
            "PH",
            "PL",
            "PS",
            "PT",
            "PY",
            "QA",
            "RO",
            "SA",
            "SE",
            "SG",
            "SK",
            "SV",
            "TH",
            "TN",
            "TR",
            "TW",
            "US",
            "UY",
            "VN",
            "ZA"
          ],
          "external_urls": {
            "spotify": "https://open.spotify.com/album/1Eav3T7yEFSOvtUOtxMKa0"
          },
          "href": "https://api.spotify.com/v1/albums/1Eav3T7yEFSOvtUOtxMKa0",
          "id": "1Eav3T7yEFSOvtUOtxMKa0",
          "images": [
            {
              "height": 640,
              "url": "https://i.scdn.co/image/77eb7c17cafe55030c5fba2ffebe9ca575c4d8a5",
              "width": 640
            },
            {
              "height": 300,
              "url": "https://i.scdn.co/image/77eb7c17cafe550226071319ef1d9b76adb51aeb",
              "width": 300
            },
            {
              "height": 64,
              "url": "https://i.scdn.co/image/77eb7c17cafe5501f3f19e2e53b087acf65dd6e9",
              "width": 64
            }
          ],
          "name": "I Want It That Way",
          "release_date": "2018-11-22",
          "release_date_precision": "day",
          "total_tracks": 1,
          "type": "album",
          "uri": "spotify:album:1Eav3T7yEFSOvtUOtxMKa0"
        },
        "artists": [
          {
            "external_urls": {
              "spotify": "https://open.spotify.com/artist/3yEHYuHmhkzoGr4Fb1kd0t"
            },
            "href": "https://api.spotify.com/v1/artists/3yEHYuHmhkzoGr4Fb1kd0t",
            "id": "3yEHYuHmhkzoGr4Fb1kd0t",
            "name": "Mick Jensen",
            "type": "artist",
            "uri": "spotify:artist:3yEHYuHmhkzoGr4Fb1kd0t"
          }
        ],
        "available_markets": [
          "AD",
          "AE",
          "AR",
          "AT",
          "AU",
          "BE",
          "BG",
          "BH",
          "BO",
          "BR",
          "CA",
          "CH",
          "CL",
          "CO",
          "CR",
          "CY",
          "CZ",
          "DE",
          "DK",
          "DO",
          "DZ",
          "EC",
          "EE",
          "EG",
          "ES",
          "FI",
          "FR",
          "GB",
          "GR",
          "GT",
          "HK",
          "HN",
          "HU",
          "ID",
          "IE",
          "IL",
          "IN",
          "IS",
          "IT",
          "JO",
          "JP",
          "KW",
          "LB",
          "LI",
          "LT",
          "LU",
          "LV",
          "MA",
          "MC",
          "MT",
          "MX",
          "MY",
          "NI",
          "NL",
          "NO",
          "NZ",
          "OM",
          "PA",
          "PE",
          "PH",
          "PL",
          "PS",
          "PT",
          "PY",
          "QA",
          "RO",
          "SA",
          "SE",
          "SG",
          "SK",
          "SV",
          "TH",
          "TN",
          "TR",
          "TW",
          "US",
          "UY",
          "VN",
          "ZA"
        ],
        "disc_number": 1,
        "duration_ms": 134515,
        "explicit": false,
        "external_ids": {
          "isrc": "SE5IB1801102"
        },
        "external_urls": {
          "spotify": "https://open.spotify.com/track/0ympGdYdVlZ8zo6irdjMvd"
        },
        "href": "https://api.spotify.com/v1/tracks/0ympGdYdVlZ8zo6irdjMvd",
        "id": "0ympGdYdVlZ8zo6irdjMvd",
        "is_local": false,
        "name": "I Want It That Way",
        "popularity": 50,
        "preview_url": "https://p.scdn.co/mp3-preview/f8181f66713983fab073e133e23c741acbe00d75?cid=7be54b178543442d9dacc0ae0e71a8a5",
        "track_number": 1,
        "type": "track",
        "uri": "spotify:track:0ympGdYdVlZ8zo6irdjMvd"
      },
      {
        "album": {
          "album_type": "album",
          "artists": [
            {
              "external_urls": {
                "spotify": "https://open.spotify.com/artist/7kwEvDE8e7EBGKh5bLczqQ"
              },
              "href": "https://api.spotify.com/v1/artists/7kwEvDE8e7EBGKh5bLczqQ",
              "id": "7kwEvDE8e7EBGKh5bLczqQ",
              "name": "Anthem Lights",
              "type": "artist",
              "uri": "spotify:artist:7kwEvDE8e7EBGKh5bLczqQ"
            }
          ],
          "available_markets": [
            "AD",
            "AE",
            "AR",
            "AT",
            "AU",
            "BE",
            "BG",
            "BH",
            "BO",
            "BR",
            "CA",
            "CH",
            "CL",
            "CO",
            "CR",
            "CY",
            "CZ",
            "DE",
            "DK",
            "DO",
            "DZ",
            "EC",
            "EE",
            "EG",
            "ES",
            "FI",
            "FR",
            "GB",
            "GR",
            "GT",
            "HK",
            "HN",
            "HU",
            "ID",
            "IE",
            "IL",
            "IN",
            "IS",
            "IT",
            "JO",
            "JP",
            "KW",
            "LB",
            "LI",
            "LT",
            "LU",
            "LV",
            "MA",
            "MC",
            "MT",
            "MX",
            "MY",
            "NI",
            "NL",
            "NO",
            "NZ",
            "OM",
            "PA",
            "PE",
            "PH",
            "PL",
            "PS",
            "PT",
            "PY",
            "QA",
            "RO",
            "SA",
            "SE",
            "SG",
            "SK",
            "SV",
            "TH",
            "TN",
            "TR",
            "TW",
            "US",
            "UY",
            "VN",
            "ZA"
          ],
          "external_urls": {
            "spotify": "https://open.spotify.com/album/6y6y4kyZ81PF951e9N4WBM"
          },
          "href": "https://api.spotify.com/v1/albums/6y6y4kyZ81PF951e9N4WBM",
          "id": "6y6y4kyZ81PF951e9N4WBM",
          "images": [
            {
              "height": 640,
              "url": "https://i.scdn.co/image/661b0ae23d3301fcb89885939b4d824231aae59a",
              "width": 640
            },
            {
              "height": 300,
              "url": "https://i.scdn.co/image/69ac515480d99d5490966863b97bfc67c7795a59",
              "width": 300
            },
            {
              "height": 64,
              "url": "https://i.scdn.co/image/6049ffadae5974c074334b3ab47604207b2d8858",
              "width": 64
            }
          ],
          "name": "Covers Part IV",
          "release_date": "2015-07-17",
          "release_date_precision": "day",
          "total_tracks": 12,
          "type": "album",
          "uri": "spotify:album:6y6y4kyZ81PF951e9N4WBM"
        },
        "artists": [
          {
            "external_urls": {
              "spotify": "https://open.spotify.com/artist/7kwEvDE8e7EBGKh5bLczqQ"
            },
            "href": "https://api.spotify.com/v1/artists/7kwEvDE8e7EBGKh5bLczqQ",
            "id": "7kwEvDE8e7EBGKh5bLczqQ",
            "name": "Anthem Lights",
            "type": "artist",
            "uri": "spotify:artist:7kwEvDE8e7EBGKh5bLczqQ"
          }
        ],
        "available_markets": [
          "AD",
          "AE",
          "AR",
          "AT",
          "AU",
          "BE",
          "BG",
          "BH",
          "BO",
          "BR",
          "CA",
          "CH",
          "CL",
          "CO",
          "CR",
          "CY",
          "CZ",
          "DE",
          "DK",
          "DO",
          "DZ",
          "EC",
          "EE",
          "EG",
          "ES",
          "FI",
          "FR",
          "GB",
          "GR",
          "GT",
          "HK",
          "HN",
          "HU",
          "ID",
          "IE",
          "IL",
          "IN",
          "IS",
          "IT",
          "JO",
          "JP",
          "KW",
          "LB",
          "LI",
          "LT",
          "LU",
          "LV",
          "MA",
          "MC",
          "MT",
          "MX",
          "MY",
          "NI",
          "NL",
          "NO",
          "NZ",
          "OM",
          "PA",
          "PE",
          "PH",
          "PL",
          "PS",
          "PT",
          "PY",
          "QA",
          "RO",
          "SA",
          "SE",
          "SG",
          "SK",
          "SV",
          "TH",
          "TN",
          "TR",
          "TW",
          "US",
          "UY",
          "VN",
          "ZA"
        ],
        "disc_number": 1,
        "duration_ms": 196969,
        "explicit": false,
        "external_ids": {
          "isrc": "QMF921550064"
        },
        "external_urls": {
          "spotify": "https://open.spotify.com/track/3Ww6kEWxLh4Ub4WPJ9hMtA"
        },
        "href": "https://api.spotify.com/v1/tracks/3Ww6kEWxLh4Ub4WPJ9hMtA",
        "id": "3Ww6kEWxLh4Ub4WPJ9hMtA",
        "is_local": false,
        "name": "I Want It That Way",
        "popularity": 49,
        "preview_url": "https://p.scdn.co/mp3-preview/4a163fbfa2dbbe4433f277e0e7395dca656364f5?cid=7be54b178543442d9dacc0ae0e71a8a5",
        "track_number": 7,
        "type": "track",
        "uri": "spotify:track:3Ww6kEWxLh4Ub4WPJ9hMtA"
      },
      {
        "album": {
          "album_type": "single",
          "artists": [
            {
              "external_urls": {
                "spotify": "https://open.spotify.com/artist/5rSXSAkZ67PYJSvpUpkOr7"
              },
              "href": "https://api.spotify.com/v1/artists/5rSXSAkZ67PYJSvpUpkOr7",
              "id": "5rSXSAkZ67PYJSvpUpkOr7",
              "name": "Backstreet Boys",
              "type": "artist",
              "uri": "spotify:artist:5rSXSAkZ67PYJSvpUpkOr7"
            }
          ],
          "available_markets": [
            "AD",
            "AE",
            "AR",
            "AT",
            "AU",
            "BE",
            "BG",
            "BH",
            "BO",
            "BR",
            "CA",
            "CH",
            "CL",
            "CO",
            "CR",
            "CY",
            "CZ",
            "DE",
            "DK",
            "DO",
            "DZ",
            "EC",
            "EE",
            "EG",
            "ES",
            "FI",
            "FR",
            "GB",
            "GR",
            "GT",
            "HK",
            "HN",
            "HU",
            "ID",
            "IE",
            "IL",
            "IN",
            "IS",
            "IT",
            "JO",
            "JP",
            "KW",
            "LB",
            "LI",
            "LT",
            "LU",
            "LV",
            "MA",
            "MC",
            "MT",
            "MX",
            "MY",
            "NI",
            "NL",
            "NO",
            "NZ",
            "OM",
            "PA",
            "PE",
            "PH",
            "PL",
            "PS",
            "PT",
            "PY",
            "QA",
            "RO",
            "SA",
            "SE",
            "SG",
            "SK",
            "SV",
            "TH",
            "TN",
            "TR",
            "TW",
            "US",
            "UY",
            "VN",
            "ZA"
          ],
          "external_urls": {
            "spotify": "https://open.spotify.com/album/74JILVZuxtZLFyRl9AY7TV"
          },
          "href": "https://api.spotify.com/v1/albums/74JILVZuxtZLFyRl9AY7TV",
          "id": "74JILVZuxtZLFyRl9AY7TV",
          "images": [
            {
              "height": 640,
              "url": "https://i.scdn.co/image/4c39a6eb9a7031a2f963d78abe097abcde85837f",
              "width": 640
            },
            {
              "height": 300,
              "url": "https://i.scdn.co/image/aeaae1372e66a854b261aaef1f92365ce99af971",
              "width": 300
            },
            {
              "height": 64,
              "url": "https://i.scdn.co/image/eac1fba39593927b7238677a0f0201cfc8cd7e05",
              "width": 64
            }
          ],
          "name": "I Want It That Way (Reimagined)",
          "release_date": "2019-05-17",
          "release_date_precision": "day",
          "total_tracks": 1,
          "type": "album",
          "uri": "spotify:album:74JILVZuxtZLFyRl9AY7TV"
        },
        "artists": [
          {
            "external_urls": {
              "spotify": "https://open.spotify.com/artist/5rSXSAkZ67PYJSvpUpkOr7"
            },
            "href": "https://api.spotify.com/v1/artists/5rSXSAkZ67PYJSvpUpkOr7",
            "id": "5rSXSAkZ67PYJSvpUpkOr7",
            "name": "Backstreet Boys",
            "type": "artist",
            "uri": "spotify:artist:5rSXSAkZ67PYJSvpUpkOr7"
          }
        ],
        "available_markets": [
          "AD",
          "AE",
          "AR",
          "AT",
          "AU",
          "BE",
          "BG",
          "BH",
          "BO",
          "BR",
          "CA",
          "CH",
          "CL",
          "CO",
          "CR",
          "CY",
          "CZ",
          "DE",
          "DK",
          "DO",
          "DZ",
          "EC",
          "EE",
          "EG",
          "ES",
          "FI",
          "FR",
          "GB",
          "GR",
          "GT",
          "HK",
          "HN",
          "HU",
          "ID",
          "IE",
          "IL",
          "IN",
          "IS",
          "IT",
          "JO",
          "JP",
          "KW",
          "LB",
          "LI",
          "LT",
          "LU",
          "LV",
          "MA",
          "MC",
          "MT",
          "MX",
          "MY",
          "NI",
          "NL",
          "NO",
          "NZ",
          "OM",
          "PA",
          "PE",
          "PH",
          "PL",
          "PS",
          "PT",
          "PY",
          "QA",
          "RO",
          "SA",
          "SE",
          "SG",
          "SK",
          "SV",
          "TH",
          "TN",
          "TR",
          "TW",
          "US",
          "UY",
          "VN",
          "ZA"
        ],
        "disc_number": 1,
        "duration_ms": 201893,
        "explicit": false,
        "external_ids": {
          "isrc": "QZES81971560"
        },
        "external_urls": {
          "spotify": "https://open.spotify.com/track/62KnDRUq6CBcT7Bqb9IHKV"
        },
        "href": "https://api.spotify.com/v1/tracks/62KnDRUq6CBcT7Bqb9IHKV",
        "id": "62KnDRUq6CBcT7Bqb9IHKV",
        "is_local": false,
        "name": "I Want It That Way - Reimagined",
        "popularity": 50,
        "preview_url": "https://p.scdn.co/mp3-preview/7f612d6ba66571500e981e74bb36e14b9906be77?cid=7be54b178543442d9dacc0ae0e71a8a5",
        "track_number": 1,
        "type": "track",
        "uri": "spotify:track:62KnDRUq6CBcT7Bqb9IHKV"
      }
    ],
    "limit": 5,
    "next": "https://api.spotify.com/v1/search?query=%22I+Want+it+That+Way%22&type=track&offset=5&limit=5",
    "offset": 0,
    "previous": null,
    "total": 558
  }
}